<?xml version="1.0" encoding="UTF-8" standalone="no"?>
<!DOCTYPE svg PUBLIC "-//W3C//DTD SVG 1.1//EN"
 "http://www.w3.org/Graphics/SVG/1.1/DTD/svg11.dtd">
<!-- Generated by graphviz version 2.40.1 (20161225.0304)
 -->
<!-- Title: Anonymous Pages: 1 -->
<svg width="259pt" height="264pt"
 viewBox="0.00 0.00 258.50 264.00" xmlns="http://www.w3.org/2000/svg" xmlns:xlink="http://www.w3.org/1999/xlink">
<g id="graph0" class="graph" transform="scale(1 1) rotate(0) translate(4 260)">
<title>Anonymous</title>
<polygon fill="#ffffff" stroke="transparent" points="-4,4 -4,-260 254.5,-260 254.5,4 -4,4"/>
<!-- 1 -->
<g id="node1" class="node">
<title>1</title>
<polygon fill="none" stroke="#c0c0c0" points="67.5,-.5 67.5,-36.5 121.5,-36.5 121.5,-.5 67.5,-.5"/>
<text text-anchor="middle" x="85" y="-16" font-family="Times,serif" font-size="10.00" fill="#000000">out1</text>
<polyline fill="none" stroke="#c0c0c0" points="102.5,-.5 102.5,-36.5 "/>
<text text-anchor="middle" x="112" y="-16" font-family="Times,serif" font-size="10.00" fill="#000000"> </text>
</g>
<!-- 2 -->
<g id="node2" class="node">
<title>2</title>
<polygon fill="none" stroke="#0000ff" points="0,-146.5 0,-182.5 79,-182.5 79,-146.5 0,-146.5"/>
<text text-anchor="middle" x="20.5" y="-162" font-family="Times,serif" font-size="10.00" fill="#000000">recWr</text>
<polyline fill="none" stroke="#0000ff" points="41,-146.5 41,-182.5 "/>
<text text-anchor="middle" x="50.5" y="-162" font-family="Times,serif" font-size="10.00" fill="#000000"> </text>
<polyline fill="none" stroke="#0000ff" points="60,-146.5 60,-182.5 "/>
<text text-anchor="middle" x="69.5" y="-162" font-family="Times,serif" font-size="10.00" fill="#000000"> </text>
</g>
<!-- 3 -->
<g id="node3" class="node">
<title>3</title>
<polygon fill="none" stroke="#0000ff" points="17.5,-73.5 17.5,-109.5 121.5,-109.5 121.5,-73.5 17.5,-73.5"/>
<text text-anchor="middle" x="45.5" y="-89" font-family="Times,serif" font-size="10.00" fill="#000000">recRd:0.0</text>
<polyline fill="none" stroke="#0000ff" points="73.5,-73.5 73.5,-109.5 "/>
<text text-anchor="middle" x="88" y="-89" font-family="Times,serif" font-size="10.00" fill="#000000">0.0</text>
<polyline fill="none" stroke="#0000ff" points="102.5,-73.5 102.5,-109.5 "/>
<text text-anchor="middle" x="112" y="-89" font-family="Times,serif" font-size="10.00" fill="#000000"> </text>
</g>
<!-- 2&#45;&gt;3 -->
<g id="edge5" class="edge">
<title>2:o_0&#45;&gt;3</title>
<path fill="none" stroke="#ff0000" d="M69.5,-146.5C69.5,-146.5 69.5,-133.1962 69.5,-119.6747"/>
<polygon fill="#ff0000" stroke="#ff0000" points="73.0001,-119.509 69.5,-109.5091 66.0001,-119.5091 73.0001,-119.509"/>
</g>
<!-- 3&#45;&gt;1 -->
<g id="edge1" class="edge">
<title>3:o_0&#45;&gt;1:i_0</title>
<path fill="none" stroke="#ffa500" d="M112.5,-73.5C112.5,-73.5 112.5,-57.5654 112.5,-46.6104"/>
<polygon fill="#ffa500" stroke="#ffa500" points="116.0001,-46.5 112.5,-36.5 109.0001,-46.5 116.0001,-46.5"/>
</g>
<!-- 4 -->
<g id="node4" class="node">
<title>4</title>
<polygon fill="none" stroke="#0000ff" points="136,-146.5 136,-182.5 215,-182.5 215,-146.5 136,-146.5"/>
<text text-anchor="middle" x="156.5" y="-162" font-family="Times,serif" font-size="10.00" fill="#000000">recWr</text>
<polyline fill="none" stroke="#0000ff" points="177,-146.5 177,-182.5 "/>
<text text-anchor="middle" x="186.5" y="-162" font-family="Times,serif" font-size="10.00" fill="#000000"> </text>
<polyline fill="none" stroke="#0000ff" points="196,-146.5 196,-182.5 "/>
<text text-anchor="middle" x="205.5" y="-162" font-family="Times,serif" font-size="10.00" fill="#000000"> </text>
</g>
<!-- 7 -->
<g id="node6" class="node">
<title>7</title>
<polygon fill="none" stroke="#0000ff" points="146.5,-73.5 146.5,-109.5 250.5,-109.5 250.5,-73.5 146.5,-73.5"/>
<text text-anchor="middle" x="174.5" y="-89" font-family="Times,serif" font-size="10.00" fill="#000000">recRd:0.0</text>
<polyline fill="none" stroke="#0000ff" points="202.5,-73.5 202.5,-109.5 "/>
<text text-anchor="middle" x="217" y="-89" font-family="Times,serif" font-size="10.00" fill="#000000">0.0</text>
<polyline fill="none" stroke="#0000ff" points="231.5,-73.5 231.5,-109.5 "/>
<text text-anchor="middle" x="241" y="-89" font-family="Times,serif" font-size="10.00" fill="#000000"> </text>
</g>
<!-- 4&#45;&gt;7 -->
<g id="edge6" class="edge">
<title>4:o_0&#45;&gt;7</title>
<path fill="none" stroke="#ff0000" d="M205.5,-146.5C205.5,-146.5 203.8068,-133.1962 202.0859,-119.6747"/>
<polygon fill="#ff0000" stroke="#ff0000" points="205.5267,-118.9871 200.7921,-109.5091 198.5827,-119.871 205.5267,-118.9871"/>
</g>
<!-- 5 -->
<g id="node5" class="node">
<title>5</title>
<polygon fill="none" stroke="#0000ff" points="37,-219.5 37,-255.5 136,-255.5 136,-219.5 37,-219.5"/>
<text text-anchor="middle" x="53" y="-235" font-family="Times,serif" font-size="10.00" fill="#000000">add</text>
<polyline fill="none" stroke="#0000ff" points="69,-219.5 69,-255.5 "/>
<text text-anchor="middle" x="83.5" y="-235" font-family="Times,serif" font-size="10.00" fill="#000000">1.0</text>
<polyline fill="none" stroke="#0000ff" points="98,-219.5 98,-255.5 "/>
<text text-anchor="middle" x="107.5" y="-235" font-family="Times,serif" font-size="10.00" fill="#000000"> </text>
<polyline fill="none" stroke="#0000ff" points="117,-219.5 117,-255.5 "/>
<text text-anchor="middle" x="126.5" y="-235" font-family="Times,serif" font-size="10.00" fill="#000000"> </text>
</g>
<!-- 5&#45;&gt;2 -->
<g id="edge2" class="edge">
<title>5:o_0&#45;&gt;2:i_0</title>
<path fill="none" stroke="#a020f0" d="M126.5,-219.5C126.5,-219.5 79.6483,-196.6906 59.5166,-186.8897"/>
<polygon fill="#a020f0" stroke="#a020f0" points="61.0232,-183.7304 50.5,-182.5 57.959,-190.0242 61.0232,-183.7304"/>
</g>
<!-- 5&#45;&gt;4 -->
<g id="edge3" class="edge">
<title>5:o_0&#45;&gt;4:i_0</title>
<path fill="none" stroke="#a020f0" d="M126.5,-219.5C126.5,-219.5 161.3129,-198.032 177.9035,-187.8012"/>
<polygon fill="#a020f0" stroke="#a020f0" points="179.8254,-190.728 186.5,-182.5 176.1511,-184.7698 179.8254,-190.728"/>
</g>
<!-- 7&#45;&gt;5 -->
<g id="edge4" class="edge">
<title>7:o_0&#45;&gt;5:i_1</title>
<path fill="none" stroke="#ffa500" d="M231.2216,-102.6989C208.1197,-127.8695 151.928,-189.0934 123.9251,-219.604"/>
<polygon fill="#ffa500" stroke="#ffa500" points="121.3202,-217.266 117.1369,-227 126.4774,-221.9993 121.3202,-217.266"/>
</g>
</g>
</svg>
