<?xml version="1.0" encoding="UTF-8" standalone="no"?>
<!DOCTYPE svg PUBLIC "-//W3C//DTD SVG 1.1//EN"
 "http://www.w3.org/Graphics/SVG/1.1/DTD/svg11.dtd">
<!-- Generated by graphviz version 2.40.1 (20161225.0304)
 -->
<!-- Title: fgl Pages: 1 -->
<svg width="144pt" height="206pt"
 viewBox="0.00 0.00 144.00 206.32" xmlns="http://www.w3.org/2000/svg" xmlns:xlink="http://www.w3.org/1999/xlink">
<g id="graph0" class="graph" transform="scale(.5263 .5263) rotate(0) translate(4 388)">
<title>fgl</title>
<polygon fill="#ffffff" stroke="transparent" points="-4,4 -4,-388 269.5917,-388 269.5917,4 -4,4"/>
<!-- 1 -->
<g id="node1" class="node">
<title>1</title>
<ellipse fill="none" stroke="#000000" cx="47.5917" cy="-18" rx="46.2923" ry="18"/>
<text text-anchor="middle" x="47.5917" y="-14.3" font-family="Times,serif" font-size="14.00" fill="#000000">df_out1:()</text>
</g>
<!-- 2 -->
<g id="node2" class="node">
<title>2</title>
<ellipse fill="none" stroke="#000000" cx="48.5917" cy="-192" rx="33.2948" ry="18"/>
<text text-anchor="middle" x="48.5917" y="-188.3" font-family="Times,serif" font-size="14.00" fill="#000000">recWr</text>
</g>
<!-- 3 -->
<g id="node3" class="node">
<title>3</title>
<ellipse fill="none" stroke="#000000" cx="47.5917" cy="-105" rx="45.4919" ry="18"/>
<text text-anchor="middle" x="47.5917" y="-101.3" font-family="Times,serif" font-size="14.00" fill="#000000">recRd:0.0</text>
</g>
<!-- 2&#45;&gt;3 -->
<g id="edge1" class="edge">
<title>2&#45;&gt;3</title>
<path fill="none" stroke="#000000" d="M48.3845,-173.9735C48.2491,-162.1918 48.0694,-146.5607 47.9154,-133.1581"/>
<polygon fill="#000000" stroke="#000000" points="51.4135,-132.9624 47.7987,-123.0034 44.4139,-133.043 51.4135,-132.9624"/>
<text text-anchor="middle" x="80.0917" y="-145.3" font-family="Times,serif" font-size="14.00" fill="#000000">(0,implicit)</text>
</g>
<!-- 3&#45;&gt;1 -->
<g id="edge2" class="edge">
<title>3&#45;&gt;1</title>
<path fill="none" stroke="#000000" d="M47.5917,-86.9735C47.5917,-75.1918 47.5917,-59.5607 47.5917,-46.1581"/>
<polygon fill="#000000" stroke="#000000" points="51.0918,-46.0033 47.5917,-36.0034 44.0918,-46.0034 51.0918,-46.0033"/>
<text text-anchor="middle" x="73.5917" y="-58.3" font-family="Times,serif" font-size="14.00" fill="#000000">(0,recRd)</text>
</g>
<!-- 4 -->
<g id="node4" class="node">
<title>4</title>
<ellipse fill="none" stroke="#000000" cx="137.5917" cy="-192" rx="33.2948" ry="18"/>
<text text-anchor="middle" x="137.5917" y="-188.3" font-family="Times,serif" font-size="14.00" fill="#000000">recWr</text>
</g>
<!-- 7 -->
<g id="node7" class="node">
<title>7</title>
<ellipse fill="none" stroke="#000000" cx="189.5917" cy="-105" rx="45.4919" ry="18"/>
<text text-anchor="middle" x="189.5917" y="-101.3" font-family="Times,serif" font-size="14.00" fill="#000000">recRd:0.0</text>
</g>
<!-- 4&#45;&gt;7 -->
<g id="edge3" class="edge">
<title>4&#45;&gt;7</title>
<path fill="none" stroke="#000000" d="M135.5297,-173.6822C135.2284,-163.6112 136.2804,-151.2257 141.5917,-141.5 144.7529,-135.7115 149.2652,-130.5615 154.2721,-126.0863"/>
<polygon fill="#000000" stroke="#000000" points="156.7683,-128.5734 162.4242,-119.6145 152.416,-123.091 156.7683,-128.5734"/>
<text text-anchor="middle" x="173.0917" y="-145.3" font-family="Times,serif" font-size="14.00" fill="#000000">(0,implicit)</text>
</g>
<!-- 5 -->
<g id="node5" class="node">
<title>5</title>
<ellipse fill="none" stroke="#000000" cx="137.5917" cy="-279" rx="55.7903" ry="18"/>
<text text-anchor="middle" x="137.5917" y="-275.3" font-family="Times,serif" font-size="14.00" fill="#000000">df_add:Float</text>
</g>
<!-- 5&#45;&gt;2 -->
<g id="edge5" class="edge">
<title>5&#45;&gt;2</title>
<path fill="none" stroke="#000000" d="M106.092,-263.9573C96.5313,-258.4138 86.4809,-251.502 78.5917,-243.5 71.5496,-236.3572 65.5391,-227.2395 60.7887,-218.6667"/>
<polygon fill="#000000" stroke="#000000" points="63.8489,-216.9648 56.1394,-209.6974 57.6342,-220.1863 63.8489,-216.9648"/>
<text text-anchor="middle" x="106.0917" y="-232.3" font-family="Times,serif" font-size="14.00" fill="#000000">(0,recWr)</text>
</g>
<!-- 5&#45;&gt;4 -->
<g id="edge4" class="edge">
<title>5&#45;&gt;4</title>
<path fill="none" stroke="#000000" d="M137.5917,-260.9735C137.5917,-249.1918 137.5917,-233.5607 137.5917,-220.1581"/>
<polygon fill="#000000" stroke="#000000" points="141.0918,-220.0033 137.5917,-210.0034 134.0918,-220.0034 141.0918,-220.0033"/>
<text text-anchor="middle" x="165.0917" y="-232.3" font-family="Times,serif" font-size="14.00" fill="#000000">(0,recWr)</text>
</g>
<!-- 6 -->
<g id="node6" class="node">
<title>6</title>
<ellipse fill="none" stroke="#000000" cx="137.5917" cy="-366" rx="27" ry="18"/>
<text text-anchor="middle" x="137.5917" y="-362.3" font-family="Times,serif" font-size="14.00" fill="#000000">1.0</text>
</g>
<!-- 6&#45;&gt;5 -->
<g id="edge6" class="edge">
<title>6&#45;&gt;5</title>
<path fill="none" stroke="#000000" d="M137.5917,-347.9735C137.5917,-336.1918 137.5917,-320.5607 137.5917,-307.1581"/>
<polygon fill="#000000" stroke="#000000" points="141.0918,-307.0033 137.5917,-297.0034 134.0918,-307.0034 141.0918,-307.0033"/>
<text text-anchor="middle" x="167.0917" y="-319.3" font-family="Times,serif" font-size="14.00" fill="#000000">(0,normal)</text>
</g>
<!-- 7&#45;&gt;5 -->
<g id="edge7" class="edge">
<title>7&#45;&gt;5</title>
<path fill="none" stroke="#000000" d="M198.5109,-122.7603C200.9904,-128.5826 203.3441,-135.182 204.5917,-141.5 213.401,-186.1111 220.7621,-204.9831 196.5917,-243.5 192.7038,-249.6957 187.3039,-254.9577 181.3368,-259.3784"/>
<polygon fill="#000000" stroke="#000000" points="179.3752,-256.4793 172.9372,-264.8938 183.2173,-262.3306 179.3752,-256.4793"/>
<text text-anchor="middle" x="239.5917" y="-188.3" font-family="Times,serif" font-size="14.00" fill="#000000">(1,recRd)</text>
</g>
</g>
</svg>
