digraph Anonymous {
graph [splines=false];
1 [shape="record",color="grey",label="{{out2|<i_0>|<i_1>}}"];
4 [shape="record",color="blue",label="{{a_read|<i_0>|<i_1>|<o_0>}}"];
5 [shape="record",color="purple",label="{{vec(2,9602)|<o_0>}}"];
6 [shape="record",color="orange",label="{{select2|<i_0>|<i_1>|<i_2>|<o_0>}}"];
7 [shape="record",color="brown",label="{{gte|<i_0>|<i_1>|<o_0>}}"];
8 [shape="record",color="orange",label="{{add|<i_0>|1|<o_0>}}"];
12 [shape="record",color="orange",label="{{select2|<i_0>|<i_1>|<i_2>|<o_0>}}"];
13 [shape="record",color="brown",label="{{gte|<i_0>|<i_1>|<o_0>}}"];
14 [shape="record",color="orange",label="{{add|<i_0>|1|<o_0>}}"];
17 [shape="record",color="orange",label="{{lrintf|<i_0>|<o_0>}}"];
18 [shape="record",color="blue",label="{{mul|0.2|<i_1>|<o_0>}}"];
20 [shape="record",color="blue",label="{{sample_rate|<o_0>}}"];
21 [shape="record",color="orange",label="{{sub|<i_0>|<i_1>|<o_0>}}"];
22 [shape="record",color="orange",label="{{sub|<i_0>|<i_1>|<o_0>}}"];
23 [shape="record",color="grey",label="{{a_write|<i_0>|<i_1>|<i_2>}}"];
25 [shape="record",color="blue",label="{{mul_add|0.39810714|<i_1>|<i_2>|<o_0>}}"];
28 [shape="record",color="blue",label="{{mul_add|<i_0>|<i_1>|<i_2>|<o_0>}}"];
29 [shape="record",color="blue",label="{{negate|<i_0>|<o_0>}}"];
30 [shape="record",color="blue",label="{{fdiv|<i_0>|<i_1>|<o_0>}}"];
31 [shape="record",color="blue",label="{{sub|1.0|<i_1>|<o_0>}}"];
33 [shape="record",color="blue",label="{{tan|<i_0>|<o_0>}}"];
34 [shape="record",color="blue",label="{{mul|<i_0>|0.5|<o_0>}}"];
35 [shape="record",color="blue",label="{{mul|<i_0>|0.15|<o_0>}}"];
36 [shape="record",color="blue",label="{{mul|<i_0>|<i_1>|<o_0>}}"];
37 [shape="record",color="blue",label="{{mul_add|<i_0>|<i_1>|1400.0|<o_0>}}"];
38 [shape="record",color="blue",label="{{sub|<i_0>|<i_1>|<o_0>}}"];
40 [shape="record",color="blue",label="{{mul_add|<i_0>|<i_1>|<i_2>|<o_0>}}"];
41 [shape="record",color="blue",label="{{exp|<i_0>|<o_0>}}"];
42 [shape="record",color="blue",label="{{fdiv|-6.9077554|<i_1>|<o_0>}}"];
44 [shape="record",color="blue",label="{{mul|0.22222222|<i_1>|<o_0>}}"];
47 [shape="record",color="blue",label="{{select2|<i_0>|1.0|0.0|<o_0>}}"];
48 [shape="record",color="brown",label="{{gt|<i_0>|<i_1>|<o_0>}}"];
54 [shape="record",color="blue",label="{{select2|<i_0>|<i_1>|<i_2>|<o_0>}}"];
55 [shape="record",color="brown",label="{{gte|<i_0>|1.0|<o_0>}}"];
56 [shape="record",color="blue",label="{{mul_add|<i_0>|9.0|<i_2>|<o_0>}}"];
57 [shape="record",color="blue",label="{{fdiv|1.0|<i_1>|<o_0>}}"];
60 [shape="record",color="blue",label="{{sub|<i_0>|1.0|<o_0>}}"];
63 [shape="record",color="blue",label="{{mul_add|<i_0>|<i_1>|<i_2>|<o_0>}}"];
64 [shape="record",color="blue",label="{{exp|<i_0>|<o_0>}}"];
65 [shape="record",color="blue",label="{{fdiv|-6.9077554|<i_1>|<o_0>}}"];
66 [shape="record",color="blue",label="{{mul|5.5555557e-3|<i_1>|<o_0>}}"];
69 [shape="record",color="blue",label="{{mul|<i_0>|800.0|<o_0>}}"];
70 [shape="record",color="blue",label="{{sin|<i_0>|<o_0>}}"];
74 [shape="record",color="blue",label="{{select2|<i_0>|<i_1>|<i_2>|<o_0>}}"];
75 [shape="record",color="brown",label="{{gte|<i_0>|6.2831855|<o_0>}}"];
76 [shape="record",color="blue",label="{{mul_add|<i_0>|0.17|<i_2>|<o_0>}}"];
77 [shape="record",color="blue",label="{{fdiv|6.2831855|<i_1>|<o_0>}}"];
81 [shape="record",color="blue",label="{{sub|<i_0>|6.2831855|<o_0>}}"];
86 [shape="record",color="blue",label="{{add|1.0|<i_1>|<o_0>}}"];
90 [shape="record",color="blue",label="{{mul_add|<i_0>|<i_1>|<i_2>|<o_0>}}"];
91 [shape="record",color="blue",label="{{mul|<i_0>|0.25|<o_0>}}"];
92 [shape="record",color="blue",label="{{sub|<i_0>|<i_1>|<o_0>}}"];
93 [shape="record",color="blue",label="{{add|1.0|<i_1>|<o_0>}}"];
94 [shape="record",color="blue",label="{{mul|<i_0>|<i_1>|<o_0>}}"];
95 [shape="record",color="blue",label="{{cos|<i_0>|<o_0>}}"];
97 [shape="record",color="blue",label="{{mul|<i_0>|<i_1>|<o_0>}}"];
98 [shape="record",color="blue",label="{{select2|<i_0>|0.0|1.0|<o_0>}}"];
99 [shape="record",color="brown",label="{{gte|<i_0>|<i_1>|<o_0>}}"];
103 [shape="record",color="blue",label="{{select2|<i_0>|<i_1>|<i_2>|<o_0>}}"];
104 [shape="record",color="brown",label="{{gte|<i_0>|1.0|<o_0>}}"];
105 [shape="record",color="blue",label="{{mul_add|<i_0>|<i_1>|<i_2>|<o_0>}}"];
106 [shape="record",color="blue",label="{{mul|440.0|<i_1>|<o_0>}}"];
108 [shape="record",color="blue",label="{{pow|2.0|<i_1>|<o_0>}}"];
110 [shape="record",color="blue",label="{{mul|<i_0>|8.3333336e-2|<o_0>}}"];
111 [shape="record",color="blue",label="{{sub|<i_0>|69.0|<o_0>}}"];
112 [shape="record",color="blue",label="{{add|<i_0>|<i_1>|<o_0>}}"];
113 [shape="record",color="blue",label="{{demand|<i_0>|<i_1>|<o_0>}}"];
114 [shape="record",color="brown",label="{{and|<i_0>|<i_1>|<o_0>}}"];
115 [shape="record",color="brown",label="{{and|<i_0>|<i_1>|<o_0>}}"];
116 [shape="record",color="brown",label="{{gt|<i_0>|0.0|<o_0>}}"];
117 [shape="record",color="brown",label="{{not|<i_0>|<o_0>}}"];
118 [shape="record",color="brown",label="{{gt|<i_0>|0.0|<o_0>}}"];
121 [shape="record",color="brown",label="{{eq|<i_0>|0|<o_0>}}"];
122 [shape="record",color="orange",label="{{imod|<i_0>|16|<o_0>}}"];
123 [shape="record",color="orange",label="{{add|<i_0>|0|<o_0>}}"];
125 [shape="record",color="orange",label="{{select2|<i_0>|<i_1>|<i_2>|<o_0>}}"];
126 [shape="record",color="orange",label="{{add|<i_0>|1|<o_0>}}"];
130 [shape="record",color="blue",label="{{a_read|<i_0>|<i_1>|<o_0>}}"];
131 [shape="record",color="purple",label="{{vec(1,6)|<o_0>}}"];
135 [shape="record",color="orange",label="{{select2|<i_0>|<i_1>|<i_2>|<o_0>}}"];
136 [shape="record",color="brown",label="{{gte|<i_0>|6|<o_0>}}"];
137 [shape="record",color="orange",label="{{add|<i_0>|1|<o_0>}}"];
140 [shape="record",color="orange",label="{{sub|<i_0>|6|<o_0>}}"];
141 [shape="record",color="blue",label="{{demand|<i_0>|<i_1>|<o_0>}}"];
142 [shape="record",color="blue",label="{{a_read|<i_0>|<i_1>|<o_0>}}"];
143 [shape="record",color="purple",label="{{vec(0,8)|<o_0>}}"];
147 [shape="record",color="orange",label="{{select2|<i_0>|<i_1>|<i_2>|<o_0>}}"];
148 [shape="record",color="brown",label="{{gte|<i_0>|8|<o_0>}}"];
149 [shape="record",color="orange",label="{{add|<i_0>|1|<o_0>}}"];
152 [shape="record",color="orange",label="{{sub|<i_0>|8|<o_0>}}"];
156 [shape="record",color="blue",label="{{sub|<i_0>|1.0|<o_0>}}"];
157 [shape="record",color="blue",label="{{add|<i_0>|0.5|<o_0>}}"];
158 [shape="record",color="blue",label="{{mul|<i_0>|0.45|<o_0>}}"];
159 [shape="record",color="blue",label="{{sin|<i_0>|<o_0>}}"];
163 [shape="record",color="blue",label="{{select2|<i_0>|<i_1>|<i_2>|<o_0>}}"];
164 [shape="record",color="brown",label="{{gte|<i_0>|6.2831855|<o_0>}}"];
165 [shape="record",color="blue",label="{{mul_add|<i_0>|8.0e-2|<i_2>|<o_0>}}"];
168 [shape="record",color="blue",label="{{sub|<i_0>|6.2831855|<o_0>}}"];
170 [shape="record",color="blue",label="{{mul_add|<i_0>|0.1|2.0e-2|<o_0>}}"];
173 [shape="record",color="blue",label="{{mul|<i_0>|<i_1>|<o_0>}}"];
176 [shape="record",color="blue",label="{{a_read|<i_0>|<i_1>|<o_0>}}"];
177 [shape="record",color="purple",label="{{vec(3,9602)|<o_0>}}"];
178 [shape="record",color="orange",label="{{select2|<i_0>|<i_1>|<i_2>|<o_0>}}"];
179 [shape="record",color="brown",label="{{gte|<i_0>|<i_1>|<o_0>}}"];
180 [shape="record",color="orange",label="{{add|<i_0>|1|<o_0>}}"];
184 [shape="record",color="orange",label="{{select2|<i_0>|<i_1>|<i_2>|<o_0>}}"];
185 [shape="record",color="brown",label="{{gte|<i_0>|<i_1>|<o_0>}}"];
186 [shape="record",color="orange",label="{{add|<i_0>|1|<o_0>}}"];
188 [shape="record",color="orange",label="{{lrintf|<i_0>|<o_0>}}"];
189 [shape="record",color="blue",label="{{mul|0.17|<i_1>|<o_0>}}"];
190 [shape="record",color="orange",label="{{sub|<i_0>|<i_1>|<o_0>}}"];
191 [shape="record",color="orange",label="{{sub|<i_0>|<i_1>|<o_0>}}"];
192 [shape="record",color="grey",label="{{a_write|<i_0>|<i_1>|<i_2>}}"];
194 [shape="record",color="blue",label="{{mul_add|0.4570882|<i_1>|<i_2>|<o_0>}}"];
197 [shape="record",color="blue",label="{{mul_add|<i_0>|<i_1>|<i_2>|<o_0>}}"];
201 [shape="record",color="blue",label="{{mul_add|<i_0>|<i_1>|<i_2>|<o_0>}}"];
202 [shape="record",color="blue",label="{{mul|<i_0>|<i_1>|<o_0>}}"];
203 [shape="record",color="blue",label="{{select2|<i_0>|0.0|1.0|<o_0>}}"];
204 [shape="record",color="brown",label="{{gte|<i_0>|<i_1>|<o_0>}}"];
205 [shape="record",color="blue",label="{{add|<i_0>|0.5|<o_0>}}"];
206 [shape="record",color="blue",label="{{mul|<i_0>|0.45|<o_0>}}"];
207 [shape="record",color="blue",label="{{sin|<i_0>|<o_0>}}"];
211 [shape="record",color="blue",label="{{select2|<i_0>|<i_1>|<i_2>|<o_0>}}"];
212 [shape="record",color="brown",label="{{gte|<i_0>|6.2831855|<o_0>}}"];
213 [shape="record",color="blue",label="{{mul_add|<i_0>|9.0e-2|<i_2>|<o_0>}}"];
216 [shape="record",color="blue",label="{{sub|<i_0>|6.2831855|<o_0>}}"];
217 [shape="record",color="blue",label="{{mul|<i_0>|<i_1>|<o_0>}}"];
4:o_0 -> 1:i_0 [color="black"]
176:o_0 -> 1:i_1 [color="black"]
5:o_0 -> 4:i_0 [color="black"]
6:o_0 -> 4:i_1 [color="black"]
7:o_0 -> 6:i_0 [color="black"]
22:o_0 -> 6:i_1 [color="black"]
8:o_0 -> 6:i_2 [color="black"]
8:o_0 -> 7:i_0 [color="black"]
17:o_0 -> 7:i_1 [color="black"]
12:o_0 -> 8:i_0 [color="red"]
13:o_0 -> 12:i_0 [color="black"]
21:o_0 -> 12:i_1 [color="black"]
14:o_0 -> 12:i_2 [color="black"]
14:o_0 -> 13:i_0 [color="black"]
17:o_0 -> 13:i_1 [color="black"]
12:o_0 -> 14:i_0 [color="red"]
18:o_0 -> 17:i_0 [color="black"]
20:o_0 -> 18:i_1 [color="black"]
14:o_0 -> 21:i_0 [color="black"]
17:o_0 -> 21:i_1 [color="black"]
8:o_0 -> 22:i_0 [color="black"]
17:o_0 -> 22:i_1 [color="black"]
5:o_0 -> 23:i_0 [color="black"]
12:o_0 -> 23:i_1 [color="red"]
25:o_0 -> 23:i_2 [color="red"]
4:o_0 -> 25:i_1 [color="black"]
28:o_0 -> 25:i_2 [color="black"]
29:o_0 -> 28:i_0 [color="black"]
28:o_0 -> 28:i_1 [color="red"]
90:o_0 -> 28:i_2 [color="black"]
30:o_0 -> 29:i_0 [color="black"]
31:o_0 -> 30:i_0 [color="black"]
86:o_0 -> 30:i_1 [color="black"]
33:o_0 -> 31:i_1 [color="black"]
34:o_0 -> 33:i_0 [color="black"]
35:o_0 -> 34:i_0 [color="black"]
36:o_0 -> 35:i_0 [color="black"]
37:o_0 -> 36:i_0 [color="black"]
77:o_0 -> 36:i_1 [color="black"]
38:o_0 -> 37:i_0 [color="black"]
69:o_0 -> 37:i_1 [color="black"]
40:o_0 -> 38:i_0 [color="black"]
63:o_0 -> 38:i_1 [color="black"]
41:o_0 -> 40:i_0 [color="black"]
40:o_0 -> 40:i_1 [color="red"]
47:o_0 -> 40:i_2 [color="black"]
42:o_0 -> 41:i_0 [color="black"]
44:o_0 -> 42:i_1 [color="black"]
20:o_0 -> 44:i_1 [color="black"]
48:o_0 -> 47:i_0 [color="black"]
54:o_0 -> 48:i_0 [color="red"]
54:o_0 -> 48:i_1 [color="red"]
55:o_0 -> 54:i_0 [color="black"]
60:o_0 -> 54:i_1 [color="black"]
56:o_0 -> 54:i_2 [color="black"]
56:o_0 -> 55:i_0 [color="black"]
57:o_0 -> 56:i_0 [color="black"]
54:o_0 -> 56:i_2 [color="red"]
20:o_0 -> 57:i_1 [color="black"]
56:o_0 -> 60:i_0 [color="black"]
64:o_0 -> 63:i_0 [color="black"]
63:o_0 -> 63:i_1 [color="red"]
47:o_0 -> 63:i_2 [color="black"]
65:o_0 -> 64:i_0 [color="black"]
66:o_0 -> 65:i_1 [color="black"]
20:o_0 -> 66:i_1 [color="black"]
70:o_0 -> 69:i_0 [color="black"]
74:o_0 -> 70:i_0 [color="red"]
75:o_0 -> 74:i_0 [color="black"]
81:o_0 -> 74:i_1 [color="black"]
76:o_0 -> 74:i_2 [color="black"]
76:o_0 -> 75:i_0 [color="black"]
77:o_0 -> 76:i_0 [color="black"]
74:o_0 -> 76:i_2 [color="red"]
20:o_0 -> 77:i_1 [color="black"]
76:o_0 -> 81:i_0 [color="black"]
33:o_0 -> 86:i_1 [color="black"]
91:o_0 -> 90:i_0 [color="black"]
97:o_0 -> 90:i_1 [color="black"]
173:o_0 -> 90:i_2 [color="black"]
92:o_0 -> 91:i_0 [color="black"]
93:o_0 -> 92:i_0 [color="black"]
94:o_0 -> 92:i_1 [color="black"]
30:o_0 -> 93:i_1 [color="black"]
93:o_0 -> 94:i_0 [color="black"]
95:o_0 -> 94:i_1 [color="black"]
36:o_0 -> 95:i_0 [color="black"]
98:o_0 -> 97:i_0 [color="black"]
170:o_0 -> 97:i_1 [color="black"]
99:o_0 -> 98:i_0 [color="black"]
103:o_0 -> 99:i_0 [color="red"]
157:o_0 -> 99:i_1 [color="black"]
104:o_0 -> 103:i_0 [color="black"]
156:o_0 -> 103:i_1 [color="black"]
105:o_0 -> 103:i_2 [color="black"]
105:o_0 -> 104:i_0 [color="black"]
57:o_0 -> 105:i_0 [color="black"]
106:o_0 -> 105:i_1 [color="black"]
103:o_0 -> 105:i_2 [color="red"]
108:o_0 -> 106:i_1 [color="black"]
110:o_0 -> 108:i_1 [color="black"]
111:o_0 -> 110:i_0 [color="black"]
112:o_0 -> 111:i_0 [color="black"]
113:o_0 -> 112:i_0 [color="black"]
141:o_0 -> 112:i_1 [color="black"]
114:o_0 -> 113:i_0 [color="black"]
130:o_0 -> 113:i_1 [color="black"]
115:o_0 -> 114:i_0 [color="black"]
121:o_0 -> 114:i_1 [color="black"]
116:o_0 -> 115:i_0 [color="black"]
117:o_0 -> 115:i_1 [color="black"]
47:o_0 -> 116:i_0 [color="black"]
118:o_0 -> 117:i_0 [color="black"]
47:o_0 -> 118:i_0 [color="red"]
122:o_0 -> 121:i_0 [color="black"]
123:o_0 -> 122:i_0 [color="black"]
125:o_0 -> 123:i_0 [color="black"]
115:o_0 -> 125:i_0 [color="black"]
126:o_0 -> 125:i_1 [color="black"]
125:o_0 -> 125:i_2 [color="red"]
125:o_0 -> 126:i_0 [color="red"]
131:o_0 -> 130:i_0 [color="black"]
135:o_0 -> 130:i_1 [color="red"]
136:o_0 -> 135:i_0 [color="black"]
140:o_0 -> 135:i_1 [color="black"]
137:o_0 -> 135:i_2 [color="black"]
137:o_0 -> 136:i_0 [color="black"]
135:o_0 -> 137:i_0 [color="red"]
137:o_0 -> 140:i_0 [color="black"]
115:o_0 -> 141:i_0 [color="black"]
142:o_0 -> 141:i_1 [color="black"]
143:o_0 -> 142:i_0 [color="black"]
147:o_0 -> 142:i_1 [color="red"]
148:o_0 -> 147:i_0 [color="black"]
152:o_0 -> 147:i_1 [color="black"]
149:o_0 -> 147:i_2 [color="black"]
149:o_0 -> 148:i_0 [color="black"]
147:o_0 -> 149:i_0 [color="red"]
149:o_0 -> 152:i_0 [color="black"]
105:o_0 -> 156:i_0 [color="black"]
158:o_0 -> 157:i_0 [color="black"]
159:o_0 -> 158:i_0 [color="black"]
163:o_0 -> 159:i_0 [color="red"]
164:o_0 -> 163:i_0 [color="black"]
168:o_0 -> 163:i_1 [color="black"]
165:o_0 -> 163:i_2 [color="black"]
165:o_0 -> 164:i_0 [color="black"]
77:o_0 -> 165:i_0 [color="black"]
163:o_0 -> 165:i_2 [color="red"]
165:o_0 -> 168:i_0 [color="black"]
38:o_0 -> 170:i_0 [color="black"]
94:o_0 -> 173:i_0 [color="black"]
28:o_0 -> 173:i_1 [color="red"]
177:o_0 -> 176:i_0 [color="black"]
178:o_0 -> 176:i_1 [color="black"]
179:o_0 -> 178:i_0 [color="black"]
191:o_0 -> 178:i_1 [color="black"]
180:o_0 -> 178:i_2 [color="black"]
180:o_0 -> 179:i_0 [color="black"]
188:o_0 -> 179:i_1 [color="black"]
184:o_0 -> 180:i_0 [color="red"]
185:o_0 -> 184:i_0 [color="black"]
190:o_0 -> 184:i_1 [color="black"]
186:o_0 -> 184:i_2 [color="black"]
186:o_0 -> 185:i_0 [color="black"]
188:o_0 -> 185:i_1 [color="black"]
184:o_0 -> 186:i_0 [color="red"]
189:o_0 -> 188:i_0 [color="black"]
20:o_0 -> 189:i_1 [color="black"]
186:o_0 -> 190:i_0 [color="black"]
188:o_0 -> 190:i_1 [color="black"]
180:o_0 -> 191:i_0 [color="black"]
188:o_0 -> 191:i_1 [color="black"]
177:o_0 -> 192:i_0 [color="black"]
184:o_0 -> 192:i_1 [color="red"]
194:o_0 -> 192:i_2 [color="red"]
176:o_0 -> 194:i_1 [color="black"]
197:o_0 -> 194:i_2 [color="black"]
29:o_0 -> 197:i_0 [color="black"]
197:o_0 -> 197:i_1 [color="red"]
201:o_0 -> 197:i_2 [color="black"]
91:o_0 -> 201:i_0 [color="black"]
202:o_0 -> 201:i_1 [color="black"]
217:o_0 -> 201:i_2 [color="black"]
203:o_0 -> 202:i_0 [color="black"]
170:o_0 -> 202:i_1 [color="black"]
204:o_0 -> 203:i_0 [color="black"]
103:o_0 -> 204:i_0 [color="red"]
205:o_0 -> 204:i_1 [color="black"]
206:o_0 -> 205:i_0 [color="black"]
207:o_0 -> 206:i_0 [color="black"]
211:o_0 -> 207:i_0 [color="red"]
212:o_0 -> 211:i_0 [color="black"]
216:o_0 -> 211:i_1 [color="black"]
213:o_0 -> 211:i_2 [color="black"]
213:o_0 -> 212:i_0 [color="black"]
77:o_0 -> 213:i_0 [color="black"]
211:o_0 -> 213:i_2 [color="red"]
213:o_0 -> 216:i_0 [color="black"]
94:o_0 -> 217:i_0 [color="black"]
197:o_0 -> 217:i_1 [color="red"]
}
