digraph Anonymous {
graph [splines=false];
1 [shape="record",color="grey",label="{{out2|<i_0>|<i_1>}}"];
2 [shape="record",color="blue",label="{{min|0.4|<i_1>|<o_0>}}"];
4 [shape="record",color="blue",label="{{max|<i_0>|<i_1>|<o_0>}}"];
6 [shape="record",color="blue",label="{{mul_add|<i_0>|<i_1>|<i_2>|<o_0>}}"];
7 [shape="record",color="blue",label="{{negate|<i_0>|<o_0>}}"];
8 [shape="record",color="blue",label="{{div|<i_0>|<i_1>|<o_0>}}"];
9 [shape="record",color="blue",label="{{sub|1.0|<i_1>|<o_0>}}"];
11 [shape="record",color="blue",label="{{tan|<i_0>|<o_0>}}"];
12 [shape="record",color="blue",label="{{mul|<i_0>|0.5|<o_0>}}"];
13 [shape="record",color="blue",label="{{mul|<i_0>|<i_1>|<o_0>}}"];
14 [shape="record",color="blue",label="{{mul|100.0|<i_1>|<o_0>}}"];
16 [shape="record",color="blue",label="{{div|<i_0>|<i_1>|<o_0>}}"];
17 [shape="record",color="blue",label="{{mul|2.0|3.1415927|<o_0>}}"];
20 [shape="record",color="blue",label="{{sample_rate|<o_0>}}"];
21 [shape="record",color="blue",label="{{max|1.0e-3|0.1|<o_0>}}"];
25 [shape="record",color="blue",label="{{add|1.0|<i_1>|<o_0>}}"];
29 [shape="record",color="blue",label="{{mul_add|<i_0>|<i_1>|<i_2>|<o_0>}}"];
30 [shape="record",color="blue",label="{{mul|<i_0>|0.25|<o_0>}}"];
31 [shape="record",color="blue",label="{{sub|<i_0>|<i_1>|<o_0>}}"];
32 [shape="record",color="blue",label="{{add|1.0|<i_1>|<o_0>}}"];
33 [shape="record",color="blue",label="{{mul|<i_0>|<i_1>|<o_0>}}"];
34 [shape="record",color="blue",label="{{cos|<i_0>|<o_0>}}"];
36 [shape="record",color="blue",label="{{select2|<i_0>|0.0|1.0|<o_0>}}"];
37 [shape="record",color="brown",label="{{gte|<i_0>|0.1|<o_0>}}"];
39 [shape="record",color="blue",label="{{select2|<i_0>|<i_1>|<i_2>|<o_0>}}"];
40 [shape="record",color="brown",label="{{gte|<i_0>|1.0|<o_0>}}"];
41 [shape="record",color="blue",label="{{mul_add|<i_0>|<i_1>|<i_2>|<o_0>}}"];
42 [shape="record",color="blue",label="{{div|1.0|<i_1>|<o_0>}}"];
43 [shape="record",color="blue",label="{{mul_add|<i_0>|10.0|21.0|<o_0>}}"];
44 [shape="record",color="blue",label="{{sin|<i_0>|<o_0>}}"];
46 [shape="record",color="blue",label="{{select2|<i_0>|<i_1>|<i_2>|<o_0>}}"];
47 [shape="record",color="brown",label="{{gte|<i_0>|<i_1>|<o_0>}}"];
48 [shape="record",color="blue",label="{{mul_add|<i_0>|0.2|<i_2>|<o_0>}}"];
51 [shape="record",color="blue",label="{{sub|<i_0>|<i_1>|<o_0>}}"];
55 [shape="record",color="blue",label="{{sub|<i_0>|1.0|<o_0>}}"];
57 [shape="record",color="blue",label="{{mul|<i_0>|<i_1>|<o_0>}}"];
58 [shape="record",color="blue",label="{{negate|0.4|<o_0>}}"];
59 [shape="record",color="blue",label="{{min|0.4|<i_1>|<o_0>}}"];
60 [shape="record",color="blue",label="{{max|<i_0>|<i_1>|<o_0>}}"];
62 [shape="record",color="blue",label="{{mul_add|<i_0>|<i_1>|<i_2>|<o_0>}}"];
66 [shape="record",color="blue",label="{{mul_add|<i_0>|<i_1>|<i_2>|<o_0>}}"];
67 [shape="record",color="blue",label="{{select2|<i_0>|0.0|1.0|<o_0>}}"];
68 [shape="record",color="brown",label="{{gte|<i_0>|0.1|<o_0>}}"];
70 [shape="record",color="blue",label="{{select2|<i_0>|<i_1>|<i_2>|<o_0>}}"];
71 [shape="record",color="brown",label="{{gte|<i_0>|1.0|<o_0>}}"];
72 [shape="record",color="blue",label="{{mul_add|<i_0>|<i_1>|<i_2>|<o_0>}}"];
74 [shape="record",color="blue",label="{{sub|<i_0>|1.0|<o_0>}}"];
75 [shape="record",color="blue",label="{{mul|<i_0>|<i_1>|<o_0>}}"];
2:o_0 -> 1:i_0 [color="black"]
59:o_0 -> 1:i_1 [color="black"]
4:o_0 -> 2:i_1 [color="black"]
6:o_0 -> 4:i_0 [color="black"]
58:o_0 -> 4:i_1 [color="black"]
7:o_0 -> 6:i_0 [color="black"]
6:o_0 -> 6:i_1 [color="red"]
29:o_0 -> 6:i_2 [color="black"]
8:o_0 -> 7:i_0 [color="black"]
9:o_0 -> 8:i_0 [color="black"]
25:o_0 -> 8:i_1 [color="black"]
11:o_0 -> 9:i_1 [color="black"]
12:o_0 -> 11:i_0 [color="black"]
13:o_0 -> 12:i_0 [color="black"]
14:o_0 -> 13:i_0 [color="black"]
21:o_0 -> 13:i_1 [color="black"]
16:o_0 -> 14:i_1 [color="black"]
17:o_0 -> 16:i_0 [color="black"]
20:o_0 -> 16:i_1 [color="black"]
11:o_0 -> 25:i_1 [color="black"]
30:o_0 -> 29:i_0 [color="black"]
36:o_0 -> 29:i_1 [color="black"]
57:o_0 -> 29:i_2 [color="black"]
31:o_0 -> 30:i_0 [color="black"]
32:o_0 -> 31:i_0 [color="black"]
33:o_0 -> 31:i_1 [color="black"]
8:o_0 -> 32:i_1 [color="black"]
32:o_0 -> 33:i_0 [color="black"]
34:o_0 -> 33:i_1 [color="black"]
14:o_0 -> 34:i_0 [color="black"]
37:o_0 -> 36:i_0 [color="black"]
39:o_0 -> 37:i_0 [color="black"]
40:o_0 -> 39:i_0 [color="black"]
55:o_0 -> 39:i_1 [color="black"]
41:o_0 -> 39:i_2 [color="black"]
41:o_0 -> 40:i_0 [color="black"]
42:o_0 -> 41:i_0 [color="black"]
43:o_0 -> 41:i_1 [color="black"]
39:o_0 -> 41:i_2 [color="red"]
20:o_0 -> 42:i_1 [color="black"]
44:o_0 -> 43:i_0 [color="black"]
46:o_0 -> 44:i_0 [color="black"]
47:o_0 -> 46:i_0 [color="black"]
51:o_0 -> 46:i_1 [color="black"]
48:o_0 -> 46:i_2 [color="black"]
48:o_0 -> 47:i_0 [color="black"]
17:o_0 -> 47:i_1 [color="black"]
16:o_0 -> 48:i_0 [color="black"]
46:o_0 -> 48:i_2 [color="red"]
48:o_0 -> 51:i_0 [color="black"]
17:o_0 -> 51:i_1 [color="black"]
41:o_0 -> 55:i_0 [color="black"]
33:o_0 -> 57:i_0 [color="black"]
6:o_0 -> 57:i_1 [color="red"]
60:o_0 -> 59:i_1 [color="black"]
62:o_0 -> 60:i_0 [color="black"]
58:o_0 -> 60:i_1 [color="black"]
7:o_0 -> 62:i_0 [color="black"]
62:o_0 -> 62:i_1 [color="red"]
66:o_0 -> 62:i_2 [color="black"]
30:o_0 -> 66:i_0 [color="black"]
67:o_0 -> 66:i_1 [color="black"]
75:o_0 -> 66:i_2 [color="black"]
68:o_0 -> 67:i_0 [color="black"]
70:o_0 -> 68:i_0 [color="black"]
71:o_0 -> 70:i_0 [color="black"]
74:o_0 -> 70:i_1 [color="black"]
72:o_0 -> 70:i_2 [color="black"]
72:o_0 -> 71:i_0 [color="black"]
42:o_0 -> 72:i_0 [color="black"]
43:o_0 -> 72:i_1 [color="black"]
70:o_0 -> 72:i_2 [color="red"]
72:o_0 -> 74:i_0 [color="black"]
33:o_0 -> 75:i_0 [color="black"]
62:o_0 -> 75:i_1 [color="red"]
}
